{
   "id":1520129451,
   "categories":[
      {
         "name":"North America",
         "sectionPath":"/news/world/north-america",
         "orderNum":0
      }
   ],
   "authors":[

   ],
  "url":"http://www.afr.com/news/world/north-america/trump-calls-tariff-war-a-little-squabble-20190514-p51ne3",
   "lastModified":1557854458208,
   "sponsored":false,
   "headline":"Trump calls tariff war 'a little squabble'",
   "indexHeadline":"Trump calls tariff war 'a little squabble'",
   "tabletHeadline":"This is an iPad headline",
   "theAbstract":"US President Donald Trump insisted that trade talks with China have not collapsed. Wall Street rallied in relief.",
   "byLine":"Alexandra Alper and Susan Heavey",
   "acceptComments":false,
   "numberOfComments":0,
   "relatedAssets":[
      {
         "id":1520128903,
         "categories":[
            {
               "name":"North America",
               "sectionPath":"/news/world/north-america",
               "orderNum":0
            }
         ],
         "authors":[
            {
               "name":"Michael Smith",
               "title":"China Correspondent ",
               "email":"michael.smith@afr.com ",
               "relatedAssets":[

               ],
               "relatedImages":[
                  {
                     "id":1030192052,
                     "categories":[

                     ],
                     "brands":[

                     ],
                     "authors":[

                     ],
                     "url":"https://www.fairfaxstatic.com.au/content/dam/images/h/1/c/l/9/w/image.imgtype.afrWoodcutAuthorImage.140x140.png/1553046783649.png",
                     "lastModified":1553046783649,
                     "sponsored":false,
                     "description":"",
                     "photographer":"",
                     "type":"afrWoodcutAuthorImage",
                     "width":140,
                     "height":140,
                     "assetType":"IMAGE",
                     "timeStamp":1553046783649
                  }
               ]
            },
            {
               "name":"Jacob Greber",
               "title":"United States Correspondent",
               "email":"jgreber@afr.com ",
               "relatedAssets":[

               ],
               "relatedImages":[
                  {
                     "id":1030191963,
                     "categories":[

                     ],
                     "brands":[

                     ],
                     "authors":[

                     ],
                     "url":"https://www.fairfaxstatic.com.au/content/dam/images/h/1/c/l/7/f/image.imgtype.afrWoodcutAuthorImage.140x140.png/1553044631889.png",
                     "lastModified":1553044631889,
                     "sponsored":false,
                     "description":"",
                     "photographer":"",
                     "type":"afrWoodcutAuthorImage",
                     "width":140,
                     "height":140,
                     "assetType":"IMAGE",
                     "timeStamp":1553044631889
                  }
               ]
            }
         ],
         "url":"http://www.afr.com/news/world/north-america/trump-loves-the-position-we-re-in-as-china-retort-smashes-wall-st-20190513-p51myv",
         "lastModified":1557808553225,
         "sponsored":false,
         "assetType":"ARTICLE",
         "headline":"Trump 'loves the position we're in' as China retort smashes Wall St",
         "timeStamp":1557798338000
      },
      {
         "id":1520127988,
         "categories":[
            {
               "name":"North America",
               "sectionPath":"/news/world/north-america",
               "orderNum":0
            }
         ],
         "authors":[
            {
               "name":"Jacob Greber",
               "title":"United States Correspondent",
               "email":"jgreber@afr.com ",
               "relatedAssets":[

               ],
               "relatedImages":[
                  {
                     "id":1030191963,
                     "categories":[

                     ],
                     "brands":[

                     ],
                     "authors":[

                     ],
                     "url":"https://www.fairfaxstatic.com.au/content/dam/images/h/1/c/l/7/f/image.imgtype.afrWoodcutAuthorImage.140x140.png/1553044631889.png",
                     "lastModified":1553044631889,
                     "sponsored":false,
                     "description":"",
                     "photographer":"",
                     "type":"afrWoodcutAuthorImage",
                     "width":140,
                     "height":140,
                     "assetType":"IMAGE",
                     "timeStamp":1553044631889
                  }
               ]
            }
         ],
         "url":"http://www.afr.com/news/world/north-america/second-term-trade-demands-will-be-even-tougher-trump-warns-china-20190510-p51m9g",
         "lastModified":1557642585640,
         "sponsored":false,
         "assetType":"ARTICLE",
         "headline":"The next deal will be 'far worse' Trump warns China",
         "timeStamp":1557638454000
      },
      {
         "id":1520126688,
         "categories":[
            {
               "name":"Asia",
               "sectionPath":"/news/world/asia",
               "orderNum":0
            }
         ],
         "authors":[
            {
               "name":"Michael Smith",
               "title":"China Correspondent ",
               "email":"michael.smith@afr.com ",
               "relatedAssets":[

               ],
               "relatedImages":[
                  {
                     "id":1030192052,
                     "categories":[

                     ],
                     "brands":[

                     ],
                     "authors":[

                     ],
                     "url":"https://www.fairfaxstatic.com.au/content/dam/images/h/1/c/l/9/w/image.imgtype.afrWoodcutAuthorImage.140x140.png/1553046783649.png",
                     "lastModified":1553046783649,
                     "sponsored":false,
                     "description":"",
                     "photographer":"",
                     "type":"afrWoodcutAuthorImage",
                     "width":140,
                     "height":140,
                     "assetType":"IMAGE",
                     "timeStamp":1553046783649
                  }
               ]
            }
         ],
         "url":"http://www.afr.com/news/world/asia/surprise-fall-in-china-exports-20190508-p51l9c",
         "lastModified":1557300075889,
         "sponsored":false,
         "assetType":"ARTICLE",
         "headline":"Surprise fall in China exports",
         "timeStamp":1557300054000
      }
   ],
   "relatedImages":[
      {
         "id":1030276954,
         "categories":[

         ],
         "brands":[

         ],
         "authors":[

         ],
         "url":"https://www.fairfaxstatic.com.au/content/dam/images/h/1/e/e/s/a/image.related.wideLandscape.1500x844.p51ne3.13zzqx.png/1557895030045.jpg",
         "lastModified":1557854073797,
         "sponsored":false,
         "description":"\"We're having a little squabble with China because we've been treated very unfairly for many, many decades,\" Trump said.",
         "photographer":"Bloomberg",
         "type":"wideLandscape",
         "width":1500,
         "height":844,
         "assetType":"IMAGE",
         "xLarge@2x":"",
         "xLarge":"",
         "large@2x":"",
         "large":"",
         "thumbnail@2x":"",
         "thumbnail":"",
         "timeStamp":1557854073797
      },
      {
         "id":1030276954,
         "categories":[

         ],
         "brands":[

         ],
         "authors":[

         ],
         "url":"https://www.fairfaxstatic.com.au/content/dam/images/h/1/e/e/s/a/image.related.thumbnail.375x250.p51ne3.13zzqx.png/1557895030045.jpg",
         "lastModified":1557854073797,
         "sponsored":false,
         "description":"\"We're having a little squabble with China because we've been treated very unfairly for many, many decades,\" Trump said.",
         "photographer":"Bloomberg",
         "type":"thumbnail",
         "width":375,
         "height":250,
         "assetType":"IMAGE",
         "timeStamp":1557854073797
      },
      {
         "id":1030276954,
         "categories":[

         ],
         "brands":[

         ],
         "authors":[

         ],
         "url":"https://www.fairfaxstatic.com.au/content/dam/images/h/1/e/e/s/a/image.related.afrArticleLead.1536x1010.p51ne3.13zzqx.png/1557895030045.jpg",
         "lastModified":1557854073797,
         "sponsored":false,
         "description":"\"We're having a little squabble with China because we've been treated very unfairly for many, many decades,\" Trump said.",
         "photographer":"Bloomberg",
         "type":"afrArticleLead",
         "width":1536,
         "height":1010,
         "assetType":"IMAGE",
         "xLarge@2x":"",
         "large@2x":"",
         "timeStamp":1557854073797
      },
      {
         "id":1030276954,
         "categories":[

         ],
         "brands":[

         ],
         "authors":[

         ],
         "url":"https://www.fairfaxstatic.com.au/content/dam/images/h/1/e/e/s/a/image.related.articleLeadwide.1500x844.p51ne3.13zzqx.png/1557895030045.jpg",
         "lastModified":1557854073797,
         "sponsored":false,
         "description":"\"We're having a little squabble with China because we've been treated very unfairly for many, many decades,\" Trump said.",
         "photographer":"Bloomberg",
         "type":"articleLeadWide",
         "width":1500,
         "height":844,
         "assetType":"IMAGE",
         "xLarge@2x":"",
         "xLarge":"",
         "large@2x":"",
         "large":"",
         "thumbnail@2x":"",
         "thumbnail":"",
         "timeStamp":1557854073797
      },
      {
         "id":1030276954,
         "categories":[

         ],
         "brands":[

         ],
         "authors":[

         ],
         "url":"https://www.fairfaxstatic.com.au/content/dam/images/h/1/e/e/s/a/image.related.afrIndexLead.1536x1010.p51ne3.13zzqx.png/1557895030045.jpg",
         "lastModified":1557854073797,
         "sponsored":false,
         "description":"\"We're having a little squabble with China because we've been treated very unfairly for many, many decades,\" Trump said.",
         "photographer":"Bloomberg",
         "type":"afrIndexLead",
         "width":1536,
         "height":1010,
         "assetType":"IMAGE",
         "xLarge@2x":"",
         "xLarge":"",
         "large@2x":"",
         "large":"",
         "thumbnail@2x":"",
         "thumbnail":"",
         "timeStamp":1557854073797
      },
      {
         "id":1030276954,
         "categories":[

         ],
         "brands":[

         ],
         "authors":[

         ],
         "url":"https://www.fairfaxstatic.com.au/content/dam/images/h/1/e/e/s/a/image.related.landscape.1174x783.p51ne3.13zzqx.png/1557895030045.jpg",
         "lastModified":1557854073797,
         "sponsored":false,
         "description":"\"We're having a little squabble with China because we've been treated very unfairly for many, many decades,\" Trump said.",
         "photographer":"Bloomberg",
         "type":"landscape",
         "width":1174,
         "height":783,
         "assetType":"IMAGE",
         "large@2x":"",
         "large":"",
         "thumbnail@2x":"",
         "thumbnail":"",
         "timeStamp":1557854073797
      }
   ],
   "companies":[

   ],
   "legalStatus":"None",
   "sources":[
      {
         "tagId":"Reuters"
      }
   ],
   "assetType":"ARTICLE",
   "overrides":{
      "overrideHeadline":"",
      "overrideAbstract":""
   },
   "timeStamp":1557854386000
}
