{
    "id": 1030276954,
    "categories": [
        
    ],
    "brands": [
        
    ],
    "authors": [
        
    ],
    "url": "https://www.fairfaxstatic.com.au/content/dam/images/h/1/e/e/s/a/image.related.wideLandscape.1500x844.p51ne3.13zzqx.png/1557895030045.jpg",
    "lastModified": 1557854073797,
    "sponsored": false,
    "description": "\"We're having a little squabble with China because we've been treated very unfairly for many, many decades,\" Trump said.",
    "photographer": "Bloomberg",
    "type": "wideLandscape",
    "width": 1500,
    "height": 844,
    "assetType": "IMAGE",
    "xLarge@2x": "",
    "xLarge": "",
    "large@2x": "",
    "large": "",
    "thumbnail@2x": "",
    "thumbnail": "",
    "timeStamp": 1557854073797
}
